\boolfalse {citerequest}\boolfalse {citetracker}\boolfalse {pagetracker}\boolfalse {backtracker}\relax 
\defcounter {refsection}{0}\relax 
\contentsline {chapter}{\numberline {1}Opis razvijenog proizvoda}{3}{chapter.1}
\defcounter {refsection}{0}\relax 
\contentsline {section}{\numberline {1.1}Uvod}{3}{section.1.1}
\defcounter {refsection}{0}\relax 
\contentsline {section}{\numberline {1.2}Opis razvijenog proizvoda}{3}{section.1.2}
\defcounter {refsection}{0}\relax 
\contentsline {chapter}{\numberline {2}Tehni\IeC {\v c}ke zna\IeC {\v c}ajke}{5}{chapter.2}
\defcounter {refsection}{0}\relax 
\contentsline {section}{\numberline {2.1}Tehnicke znacajke}{5}{section.2.1}
\defcounter {refsection}{0}\relax 
\contentsline {chapter}{\numberline {3}Upute za koristenje}{6}{chapter.3}
\defcounter {refsection}{0}\relax 
\contentsline {section}{\numberline {3.1}Upute za koristenje}{6}{section.3.1}
\defcounter {refsection}{0}\relax 
\contentsline {chapter}{Literatura}{6}{section.3.1}
